786172 510384 509
568972 598079 434
849183 177140 525
952741 981761 458
13448 995065 525
626118 806888 509
830131 635586 504
828128 820901 419
856187 851735 419
759349 683071 504
533217 564699 452
212237 359391 443
547112 66647 470
171242 672354 509
80669 999029 525
733275 991034 525
573247 921513 525
242592 282315 407
893012 227970 525
45339 130158 354
340414 186755 443
568949 443657 470
919654 902329 476
2763 12647 268
525448 708071 509
230134 728914 509
992098 480338 525
283607 657145 509
44363 585839 470
244582 156453 443
893606 441523 525
687563 61126 509
733753 27535 509
955324 269503 525
563164 474658 470
489162 149743 449
860963 968823 507
4803 542682 470
143500 768932 509
357237 375514 410
747728 871289 525
978992 848767 507
371353 328952 441
396459 448760 449
78983 285519 443
968376 928821 507
480404 106694 449
417898 183696 449
280525 470670 449
388714 427515 449
678569 456151 509
599489 867422 525
350528 516679 470
263136 778301 509
407654 371 443
391454 968173 525
833658 689231 504
882583 531227 525
151544 120167 375
824733 679763 504
114442 887285 525
906862 343529 525
670155 679248 385
922298 856603 476
506970 172025 449
325678 746165 509
678216 256955 509
61429 526795 470
856394 491407 525
461491 638585 509
349026 581880 470
503891 210924 449
850026 214343 525
573712 978992 525
23498 248867 443
409109 81583 443
388866 458387 449
204134 173468 365
570344 426915 470
398053 740477 509
495197 81575 449
881570 541413 525
428237 961114 525
461618 458862 444
414229 707380 509
604728 43677 470
56867 547744 470
303083 856470 525
108206 922848 525
473210 465602 413
465010 740837 509
645123 104716 509
689 477710 449
967972 957490 414
168683 784826 509
772596 783639 437
372866 304414 441
961329 979041 458
522999 509103 470
258322 545627 470
56887 975342 525
17271 277769 443
813503 929918 525
438741 68929 449
629604 609834 509
93540 582845 470
914045 382706 525
550640 499284 470
924012 545418 525
724501 344043 509
712172 149273 509
934986 415934 525
434138 921293 525
509275 3540 449
331018 8949 443
804124 906915 525
912955 380400 525
4943 128796 354
442126 92207 449
949313 324707 525
468643 729083 509
554287 76866 470
767558 8696 509
69019 837154 509
246264 680314 509
647823 188651 509
497827 283430 449
336001 785523 509
752343 115911 509
69692 464446 449
904844 315171 525
469196 577921 470
430390 762642 509
135299 236853 443
301386 795314 509
745129 202814 509
832620 30448 509
716748 439785 509
908104 197058 525
303226 304565 340
798379 148472 509
640389 49043 509
33273 226832 386
748521 289746 509
871640 858296 388
33682 136097 354
789729 177339 509
507534 219811 449
553108 782608 509
148424 179822 383
763703 890380 525
10143 786292 509
453362 467990 444
132876 431497 449
595312 458769 470
499414 775966 509
110514 742289 509
271016 766289 509
302220 88505 443
261388 571961 470
777357 870625 525
530900 588641 452
364134 29471 443
294620 994799 525
253169 935195 525
889453 903681 401
776460 388828 509
741295 622117 509
454881 395615 449
543428 897772 525
289003 938263 525
519289 436692 470
98436 189610 383
746375 499320 509
669783 929330 525
788930 686338 504
422413 952517 525
886093 770570 525
268113 444234 449
757036 363580 509
402692 940900 525
985107 295978 525
819987 45964 509
285625 499672 449
526567 315708 470
965417 568944 525
581306 5861 470
682483 378215 509
826056 649270 504
489426 922465 525
2820 593621 470
702913 650469 442
313536 842638 525
226986 699851 509
428600 256464 449
468644 644966 509
498316 600971 470
905998 848461 445
855179 423057 525
968781 709736 525
370248 718681 509
28302 579518 470
623666 339777 470
834301 532335 509
242848 800170 509
