498618 834727 509
59379 29698 340
170431 829495 509
552170 760159 509
112141 176066 383
265766 743162 509
476064 55213 449
508006 955521 525
284364 463897 449
185732 571410 470
780804 250554 509
492545 990795 525
349973 300321 441
669946 146574 509
251475 701315 509
517066 683445 509
82340 718985 509
781958 518144 509
380264 913047 525
741639 12370 509
615405 879785 525
77900 13369 351
32499 861439 525
354987 258665 441
597051 502271 470
755868 788378 468
907623 743834 525
741641 160171 509
211436 511160 449
668864 620347 509
457892 519224 470
478944 861355 525
671067 433409 509
261751 632288 509
601344 256657 470
598353 496372 470
885708 557075 525
359071 612186 470
792833 356685 509
999221 492125 525
112548 40301 354
453922 37917 449
139443 397257 443
981251 639278 525
933103 558423 525
619550 107967 470
355979 381110 423
899507 809698 525
623773 946273 525
519784 377604 470
201179 110176 383
214597 7938 383
638490 901776 525
618759 701672 509
182838 574939 470
919767 853954 476
192680 452175 449
240608 36019 443
772373 451497 509
138900 966437 525
271050 426610 449
105525 635554 509
317372 67248 443
677547 262358 509
318503 212956 443
288985 530533 470
625515 875991 525
858782 426743 525
205892 399852 443
41731 188829 383
70618 912269 525
461403 813215 509
115249 613380 470
70418 466484 449
257437 318457 407
970921 498779 525
232981 601506 470
401826 928978 525
79102 536120 470
411246 412296 330
603991 433880 470
810010 773780 468
548522 953865 525
911682 86906 525
777267 385519 509
813345 956301 525
249969 39342 443
119912 316986 443
91689 191599 383
141083 853323 525
782956 57212 509
666421 882852 525
567270 245880 470
659156 790194 504
826396 16302 509
284829 260587 407
506586 524494 470
456301 520610 470
147354 411266 449
569350 378214 470
491501 208271 449
669622 856323 525
101202 652627 509
261200 161710 443
51184 215876 383
106355 934661 525
973293 873259 507
339381 92751 443
687954 512207 509
938838 82517 525
801518 903151 525
942540 240884 525
914656 628022 525
900489 937254 476
367484 484659 449
736289 365116 509
993274 833958 525
730096 409521 509
823631 358819 509
776733 44242 509
10035 276151 443
636547 123169 509
366531 225731 443
983171 434121 525
198514 543796 470
783506 636764 504
3364 976823 525
703753 654669 442
617875 145520 470
600436 524804 452
217718 662486 509
268637 145880 443
800026 718029 468
944323 925278 507
835010 678135 504
326155 549815 470
444831 114989 449
809064 375876 509
606038 646411 509
763187 210330 509
501162 212694 449
193991 194922 329
995064 264546 525
379204 294280 441
139689 622404 470
452455 873038 525
605731 938304 525
583081 637257 509
502943 141088 449
881951 455463 525
915424 297062 525
499655 137142 449
104301 489647 449
823410 718878 468
757230 573728 509
241694 994922 525
427263 362926 449
809108 363631 509
565295 824621 509
333051 398429 441
137377 574825 470
289466 337686 384
53357 955027 525
523872 228217 470
16854 785686 509
363847 451427 449
383776 654183 509
947866 204824 525
512956 431338 470
331505 432766 449
998384 604622 525
134155 830230 509
508713 550128 470
285482 165506 443
492543 941850 525
925281 4778 525
635916 162691 509
915867 141738 525
294069 179114 443
467867 218086 449
20274 301804 443
321184 104116 443
731638 126117 509
116936 653311 509
151624 26864 375
94434 163800 383
719672 215038 509
78064 460122 449
595879 696068 509
762084 256341 509
947909 73058 525
686859 780354 504
539765 580864 452
41085 410304 449
996324 955870 458
458118 153378 449
387204 604858 470
531552 996498 525
792400 636814 504
600012 508285 470
14290 504179 449
106835 717185 509
91326 85462 333
822905 569848 509
659747 73917 509
110159 749243 509
142046 836253 509
768219 648530 504
581474 154449 470
311292 630357 509
66044 414026 449
20020 525960 470
366032 598112 470
648020 937386 525
460585 641830 509
22799 190744 383
232331 815754 509
923899 186513 525
678400 955580 525
550323 354093 470
76581 318158 443
808872 601223 509
867173 9384 525
253607 991356 525
979841 745702 525
861141 147095 525
338030 859729 525
641465 108908 509
551733 425368 470
582356 16127 470
798176 471205 509
745167 252035 509
835143 426527 509
715761 840927 525
867600 208004 525
898945 403434 525
661898 226237 509
782347 518247 509
154112 114809 375
409697 488556 449
1328 370046 443
665405 18524 509
223890 296541 443
62528 79191 351
593879 605268 403
336227 855793 525
93747 330570 443
982331 758931 525
387763 42359 443
