1 10 20
100 200 125
201 210 89
900 1000 174
454780 7817 449
176866 961181 525
663194 523090 509
680791 949086 525
545794 321977 470
663159 79680 509
983677 41639 525
695678 702492 411
810850 324231 509
265005 593438 470
654697 687433 442
381939 9420 443
741647 233857 509
704153 961563 525
946549 26255 525
603640 258962 470
359989 668218 509
917254 791292 525
73559 546873 470
590338 232136 470
592013 817582 509
295799 669674 509
862407 803273 525
560774 252766 470
438481 9276 449
955228 396258 525
895040 422755 525
115753 535024 470
183014 506586 449
74742 169740 383
185752 992059 525
765233 23046 509
784119 334780 509
721732 139827 509
275193 239235 407
138222 105651 354
840640 880456 432
352244 743148 509
898115 441527 525
360926 449036 449
600779 205337 470
352913 336485 441
941724 802180 525
332283 456017 449
203538 147639 383
211742 921324 525
264232 223342 443
217942 238774 443
212259 909757 525
13007 896724 525
391230 570526 470
142950 533573 470
943180 299056 525
543135 237860 470
667401 658032 442
551563 834608 509
32267 962190 525
351644 672663 509
676150 543885 509
329139 921878 525
315236 189908 443
625772 837204 509
385358 174861 443
665825 251469 509
415593 313626 449
123597 426041 449
245940 844393 525
725050 507224 509
118846 492993 449
474760 915137 525
428330 133979 449
990109 794295 525
418110 454794 418
543858 854383 525
557509 952889 525
243927 786573 509
969384 54910 525
110535 265973 443
575849 318559 470
45942 878458 525
201096 987213 525
269248 831370 509
120830 156979 383
490031 11532 449
608699 441279 470
770732 500219 509
358876 271706 441
637278 819963 504
617732 56677 470
482306 912177 525
381568 280293 441
431327 835691 509
998810 560517 525
292760 167473 443
9404 648299 509
841877 710020 525
393568 537496 470
436398 66896 449
20303 678909 509
103280 587915 470
587458 573178 434
392246 958871 525
164384 743160 509
263185 950177 525
270595 876333 525
347527 238810 441
786193 510483 509
604842 579521 434
410628 720397 509
605709 828452 509
609392 871508 525
24790 211556 383
779924 456734 509
882579 254602 525
620723 500901 470
369807 188777 443
767608 72632 509
796399 772829 468
355392 2598 443
202514 435185 449
673926 878224 525
386674 317507 441
910443 168178 525
672185 151585 509
946871 790448 525
194625 750499 509
580388 295675 470
121821 274242 443
628870 859776 525
767558 111114 509
663950 977253 525
216047 507401 449
538398 424972 470
20328 158025 383
393597 859819 525
521604 862497 525
685934 17849 509
271940 515239 470
285655 298340 389
792149 927741 525
445697 979733 525
537674 24114 470
705361 384008 509
693355 790878 504
62421 865720 525
366494 970502 525
218936 985336 525
892938 455166 525
585057 170469 470
518118 718652 509
934959 717752 525
536937 50851 470
392931 209364 443
989426 572802 525
811304 830418 450
862179 188016 525
139025 42642 354
640396 869082 525
246740 458058 449
940816 85968 525
681170 302037 509
692645 917447 525
872685 683865 525
114004 426249 449
103925 885603 525
84670 982893 525
873522 595671 525
708964 372476 509
49082 287226 443
486263 30605 449
635696 796709 504
542766 463241 470
324589 57266 443
192264 264177 443
854662 75330 525
265474 760002 509
191118 913186 525
357936 685849 509
77774 771485 509
685770 743560 504
833188 192204 509
838167 330299 525
212734 296628 443
169452 72891 383
48778 760156 509
496876 386673 449
198917 676924 509
145011 298953 443
470607 358359 449
40541 203916 383
593033 46818 470
191398 587536 470
769625 977818 525
907142 762645 525
148396 671544 509
876658 560398 525
433990 860504 525
822015 2210 509
341676 700676 509
301938 155222 443
65368 839681 525
210474 459654 449
497384 956776 525
915704 441074 525
702059 150747 509
372052 829062 509
377520 753797 509
78373 835010 509
905187 220356 525
151785 54786 375
644709 216721 509
234951 422522 449
873159 848131 432
125418 211306 383
160002 524252 470
668699 413030 509
673434 786360 504
813262 252428 509
796498 398367 509
793324 642908 504
134795 939048 525
440560 760156 509
124588 782896 509
793799 47789 509
979747 48837 525
432451 480128 444
378708 795966 509
440228 433652 400
906035 770181 525
755708 139483 509
737809 285865 509
260594 375032 441
67693 850785 525
899976 57536 525
85601 786755 509
513348 164092 470
309733 105908 443
383557 12825 443
131829 327956 443
18853 88008 351
171779 94009 383
703292 286047 509
683962 428050 509
517592 115420 470
387253 383771 348
454964 533811 470
891889 218819 525
960579 341889 525
329141 288932 384
643512 82395 509
