713628 968066 525
916463 966474 507
91938 678710 509
347959 853224 525
956549 626713 525
317744 765140 509
501447 144150 449
834203 268943 509
145202 814249 509
167237 992662 525
714329 962751 525
283040 581824 470
565916 481383 470
588761 787899 509
135324 161831 383
891244 305314 525
336735 16152 443
833404 418807 509
917897 756811 525
822664 174105 509
319766 633047 509
124461 871065 525
740852 884184 525
661981 457717 509
919904 540505 525
881028 32510 525
48838 993111 525
939903 800489 525
20832 928705 525
487984 985355 525
750449 48004 509
731971 516890 509
744431 792559 468
328394 91032 443
886140 776074 525
514156 81000 470
883398 348382 525
958583 458004 525
303195 413189 449
343320 186567 443
851182 947765 507
334107 150008 443
589723 92054 470
306117 443988 449
244297 667440 509
262738 762382 509
914939 685957 525
635972 667060 442
642449 536363 509
328985 112299 443
47888 170735 383
48314 449753 449
160083 275770 443
351585 755284 509
55383 7248 340
914194 124664 525
92745 651675 509
984591 342569 525
202919 745714 509
632129 84575 509
735441 746793 424
184233 154966 383
70689 756048 509
174360 774890 509
250872 612036 470
53512 51871 340
478933 337275 449
454190 648359 509
320056 877907 525
273992 184429 443
134110 641532 509
325380 729155 509
711025 828169 468
492441 259126 449
210371 98587 383
261940 100266 443
680102 672464 385
793037 421005 509
798509 259334 509
831358 225650 509
15258 262114 443
466133 444149 444
639468 741483 504
800910 363480 509
308996 16850 443
985053 69488 525
69337 748851 509
967041 147877 525
242081 713668 509
110970 17558 354
856971 524076 525
190623 281417 443
540257 515095 439
666390 991299 525
158328 301198 443
593600 308768 470
951678 365714 525
932224 726603 525
771172 299604 509
292477 758894 509
261 562019 470
299445 597153 470
852603 649411 525
489341 487075 382
851725 457805 525
312983 544058 470
306289 499142 449
245605 454753 449
989391 123987 525
611965 104472 470
686691 877516 525
925428 21876 525
60275 989777 525
232313 933818 525
484676 201916 449
552335 310681 470
347898 740016 509
139148 28098 354
236957 634717 509
299417 748606 509
203812 587639 470
863608 663040 525
485701 499740 426
47119 503731 449
734880 991255 525
717172 720459 349
929291 49148 525
778787 855859 525
178164 26273 383
176102 165196 352
869488 794085 525
595920 728827 509
625463 366517 470
743537 554863 509
487758 84810 449
145424 730126 509
599850 436530 470
207352 955951 525
532421 935755 525
992569 135538 525
34894 543623 470
61555 922509 525
246937 8681 443
753203 344104 509
170740 656804 509
14619 418333 449
324671 366309 441
830242 462949 509
919005 491874 525
327707 347021 441
777157 367209 509
17692 829969 509
145381 357973 443
372711 673056 509
692040 703625 411
496506 522544 470
380236 308630 441
665085 477654 509
477250 363762 449
475843 996293 525
557073 592529 434
64308 227304 386
227092 738558 509
349991 296715 441
469964 698173 509
222150 249179 443
551808 801040 509
61324 959603 525
342503 113261 443
760904 969472 525
19106 997447 525
867327 666633 525
818016 580004 509
620507 875142 525
41098 395524 443
413085 875189 525
945539 986074 458
219875 233226 443
17062 162730 383
543563 846271 525
236526 848365 525
156412 888728 525
146704 689831 509
238765 828225 509
233833 355137 441
396198 420576 449
570791 267125 470
941157 513712 525
809906 22468 509
710049 323333 509
842843 458856 525
572798 932320 525
141731 478999 449
987292 916218 507
723637 237896 509
963913 332735 525
77664 486707 449
574350 34111 470
622567 388034 470
481271 121651 449
2287 98286 351
48918 47784 265
846354 180787 525
561894 883452 525
495104 42600 449
83087 227616 386
116438 223927 386
784819 200890 509
345466 611905 470
860294 505787 525
56597 481669 449
796023 358940 509
91002 761259 509
331203 793199 509
705079 378503 509
787795 880460 525
307867 548386 470
856929 261542 525
205042 61730 383
506708 894636 525
787525 324517 509
905670 961964 507
443700 806862 509
690233 120595 509
174737 267553 443
359536 129155 443
644420 234697 509
143952 451846 449
321867 616250 470
445459 141894 449
954517 759983 525
868891 670878 525
650951 6113 509
938832 672979 525
936469 836452 525
394609 320662 441
648918 130733 509
658423 566140 509
83544 84698 320
570481 725880 509
13721 378428 443
548922 89899 470
120432 35754 354
939086 661325 525
170851 549626 470
304771 970634 525
104096 236889 443
218247 837658 509
579018 642815 509
50955 518026 470
